<?xml version="1.0" encoding="UTF-8"?>
<svg width="96px" height="96px" viewBox="0 0 96 96" version="1.1" xmlns="http://www.w3.org/2000/svg" xmlns:xlink="http://www.w3.org/1999/xlink">
    <!-- Generator: Sketch 51.2 (57519) - http://www.bohemiancoding.com/sketch -->
    <title>Icon 24px</title>
    <desc>Created with Sketch.</desc>
    <defs></defs>
    <g id="Symbols" stroke="none" stroke-width="1" fill="none" fill-rule="evenodd">
        <g id="icon-/-white-/-ic_arrow_forward">
            <g id="ic_arrow_forward">
                <g id="Icon-24px">
                    <polygon id="Shape" points="0 0 96 0 96 96 0 96"></polygon>
                    <path d="M72,48 L24,48 L72,48 Z M24,48 L48,24 L24,48 Z M24,48 L48,72 L24,48 Z" id="Shape" stroke="#FFFFFF" stroke-linecap="square" transform="translate(48.000000, 48.000000) scale(-1, 1) translate(-48.000000, -48.000000) "></path>
                </g>
            </g>
        </g>
    </g>
</svg>